Linux 5.15.41-1-lts (home-arch) 	27/05/22 	_x86_64_	(8 CPU)

15:25:04     CPU    %usr   %nice    %sys %iowait    %irq   %soft  %steal  %guest  %gnice   %idle
15:25:06     all    4.80    0.00    3.49    0.00    0.00    1.56    0.00    0.00    0.00   90.15
Average:     all    4.80    0.00    3.49    0.00    0.00    1.56    0.00    0.00    0.00   90.15
